<svg xmlns="http://www.w3.org/2000/svg" width="27" height="24" viewBox="0 0 27 24">
  <polyline fill="none" stroke="#09F" stroke-width="4" points="7.74 20.714 15.201 28.405 30.908 10" transform="translate(-6 -8)"/>
</svg>
