<?xml version="1.0" encoding="UTF-8"?>
<svg width="20px" height="20px" viewBox="0 0 20 20" version="1.1" xmlns="http://www.w3.org/2000/svg" xmlns:xlink="http://www.w3.org/1999/xlink">
    <!-- Generator: Sketch 46.2 (44496) - http://www.bohemiancoding.com/sketch -->
    <title>Icon / Expand</title>
    <desc>Created with Sketch.</desc>
    <defs></defs>
    <g id="Desktop" stroke="none" stroke-width="1" fill="none" fill-rule="evenodd">
        <g id="Seminar-Registration" transform="translate(-512.000000, -1760.000000)" stroke="#0099FF" stroke-width="2">
            <g id="Icon-/-Expand" transform="translate(512.000000, 1760.000000)">
                <path d="M10,-0.5 L10,19.5" id="Line-Copy-6" transform="translate(10.000000, 9.500000) rotate(90.000000) translate(-10.000000, -9.500000) "></path>
                <path d="M10,0 L10,20" id="Line-Copy-6"></path>
            </g>
        </g>
    </g>
</svg>