<svg xmlns="http://www.w3.org/2000/svg" width="17" height="23" viewBox="0 0 17 23">
  <g fill="none" fill-rule="evenodd" stroke="#09F" stroke-width="2">
    <path d="M1,1 L1,22 L16,22 L16,9.53927627 L7.5792455,1 L1,1 Z"/>
    <polyline points="7 2 7 10 15 10"/>
  </g>
</svg>
