<svg xmlns="http://www.w3.org/2000/svg" width="20" height="19" viewBox="0 0 20 19">
  <g fill="none" fill-rule="evenodd" stroke="#09F" stroke-width="2" transform="translate(.61 .16)">
    <path d="M7,17.0666504 L18,17.0666504 L18,6.06665039 L7,6.06665039 L7,17.0666504 Z"/>
    <path d="M1,12 L12,12 L12,1 L1,1 L1,12 Z"/>
  </g>
</svg>
